{
    "$schema": "http://json-schema.org/schema",
    "id": "ng-add-raiz-schematic",
    "title": "Ordenar schematics y enviar reglas",
    "type": "object",
    "properties": {
      "proyecto": {
        "type": "string",
        "description": "Nombre del proyecto"
      },
      "e_shop": {
        "type": "boolean",
        "description": "Caracteristica 1. E-shop",
        "default": false
      },
      "catalogo": {
        "type": "boolean",
        "description": "Caracteristica 2. Catalogo",
        "default": false
      },
      "general": {
        "type": "boolean",
        "description": "Caracteristica 3. General",
        "default": false
      },
      "categorias": {
        "type": "boolean",
        "description": "Caracteristica 4. Categorias",
        "default": false
      },
      "buscador": {
        "type": "boolean",
        "description": "Caracteristica 5. Buscador",
        "default": false
      },
      "basico": {
        "type": "boolean",
        "description": "Caracteristica 6. Basico",
        "default": false
      },
      "avanzado": {
        "type": "boolean",
        "description": "Caracteristica 7. Avanzado",
        "default": false
      },
      "carrito": {
        "type": "boolean",
        "description": "Caracteristica 8. Carrito",
        "default": false
      },
      "vista": {
        "type": "boolean",
        "description": "Caracteristica 9. Vista",
        "default": false
      },
      "funcional": {
        "type": "boolean",
        "description": "Caracteristica 10. Funcional",
        "default": false
      },
      "medio_de_pago": {
        "type": "boolean",
        "description": "Caracteristica 11. Medio de pago",
        "default": false
      },
      "transferencia": {
        "type": "boolean",
        "description": "Caracteristica 12. Transferencia",
        "default": false
      },
      "tarjeta_de_credito": {
        "type": "boolean",
        "description": "Caracteristica 13. Tarjeta de credito",
        "default": false
      },
      "tarjeta_de_debito": {
        "type": "boolean",
        "description": "Caracteristica 14. Tarjeta de debito",
        "default": false
      },
      "paypal": {
        "type": "boolean",
        "description": "Caracteristica 15. Paypal",
        "default": false
      },
      "administracion": {
        "type": "boolean",
        "description": "Caracteristica 16. Administracion",
        "default": false
      },
      "pagina": {
        "type": "boolean",
        "description": "Caracteristica 17. Pagina",
        "default": false
      },
      "crud_productos": {
        "type": "boolean",
        "description": "Caracteristica 18. CRUD Productos",
        "default": false
      },
      "crud_categorias": {
        "type": "boolean",
        "description": "Caracteristica 19. CRUD Categorias",
        "default": false
      },
      "estilos": {
        "type": "boolean",
        "description": "Caracteristica 20. Estilos",
        "default": false
      },
      "crud_usuarios": {
        "type": "boolean",
        "description": "Caracteristica 21. CRUD Usuarios",
        "default": false
      }
    },
    "required": ["e_shop"],
    "additionalProperties": false
}