{
    "$schema": "http://json-schema.org/schema",
    "id": "configurar-general-schematic",
    "title": "Configurar la caracteristica General",
    "type": "object",
    "properties": {
        "categorias": {
            "type": "boolean",
            "description": "Caracteristica 4. Categorias",
            "default": false
        },
        "carrito": {
            "type": "boolean",
            "description": "Caracteristica 8. Carrito",
            "default": false
        },
        "crud_productos": {
            "type": "boolean",
            "description": "Caracteristica 18. CRUD Productos",
            "default": false
        }
    },
    "required": [],
    "additionalProperties": true
}