{
  "$schema": "../node_modules/@angular-devkit/schematics/collection-schema.json",
  "schematics": {
    "ng-add": {
      "description": "Schematic raiz para la gestion de los demas Schematics",
      "factory": "./raiz/index#ngAdd",
      "schema": "./raiz/schema.json"
    },
    "caracteristica-eshop": {
      "description": "Schematic para la caracteristica EShop",
      "factory": "./eshop/index#configurarEshop",
      "private": true,
      "schema": "./eshop/schema.json"
    },
    "caracteristica-catalogo": {
      "description": "Schematic para la característica Catálogo",
      "factory": "./catalogo/index#configurarCatalogo",
      "private": true,
      "schema": "./catalogo/schema.json"
    },
    "caracteristica-general": {
      "description": "Schematic para la característica General",
      "factory": "./general/index#configurarGeneral",
      "private": true,
      "schema": "./general/schema.json"
    },
    "caracteristica-categorias": {
      "description": "Schematic para la característica Categorias",
      "factory": "./categorias/index#configurarCategorias",
      "private": true,
      "schema": "./categorias/schema.json"
    }
  }
}
